Airbnb: Data Modeling
…
host_info <- tibble(
    host_location = new_york$fields$host_location,
    host_neighbourhood = new_york$fields$host_neighbourhood,
    host_listings_count = new_york$fields$host_listings_count,
)
new_york_fields <- new_york_fields %>% drop_na()
new_york_fields

## # A tibble: 15,954 x 16
##    price bathrooms bedrooms property_type zipcode availability_365
##    <int>     <dbl> <fct>    <fct>         <fct>              <int>
##  1   115         1 1        Apartment     10021                 92
##  2   290         0 1        Apartment     10002                  0
##  3    60         1 1        Apartment     10002                133
##  4    99         1 1        Loft          10002                167
##  5   110         1 1        Apartment     10002                 66
##  6   351         1 0        Loft          10002                  0
##  7   190         1 1        Apartment     10002                125
##  8   149         1 0        Apartment     10002                 47
##  9   200         1 1        Apartment     10009                178
## 10   200         1 1        Apartment     10002                361
## #  with 15,944 more rows, and 10 more variables: host_location <chr>,
## #   host_listings_count <int>, neighbourhood_group_cleansed <chr>,
## #   host_neighbourhood <chr>, host_id <chr>, neighbourhood <chr>,
## #   geolocation <list>, bed_type <chr>, calendar_last_scraped <chr>,
## #   record_timestamp <chr>
…
